{
    "name": "Virtuloc",
    "references": [
        "GUID:6055be8ebefd69e48b49212b09b47b2f",
        "GUID:831409e8f9d13b5479a3baef9822ad34",
        "GUID:57c32fc907df0f54e8e6e8f0d2488336",
        "GUID:9069ac25d95ca17448a247f3bb1c769f"
    ],
    "includePlatforms": [],
    "excludePlatforms": [],
    "allowUnsafeCode": false,
    "overrideReferences": false,
    "precompiledReferences": [],
    "autoReferenced": true,
    "defineConstraints": [],
    "versionDefines": [],
    "noEngineReferences": false
}