{
    "name": "Virtuloc.Event",
    "references": [
        "GUID:c8528e5b0d50acc41b0b0638a95d7f3e",
        "GUID:6055be8ebefd69e48b49212b09b47b2f"
    ],
    "includePlatforms": [],
    "excludePlatforms": [],
    "allowUnsafeCode": false,
    "overrideReferences": false,
    "precompiledReferences": [],
    "autoReferenced": true,
    "defineConstraints": [],
    "versionDefines": [],
    "noEngineReferences": false
}