{
    "name": "Virtuloc.Networking",
    "references": [
        "GUID:c8528e5b0d50acc41b0b0638a95d7f3e",
        "GUID:57c32fc907df0f54e8e6e8f0d2488336",
        "GUID:7b97d97b02a850945b70a4d2af09dcf3",
        "GUID:831409e8f9d13b5479a3baef9822ad34"
    ],
    "includePlatforms": [],
    "excludePlatforms": [],
    "allowUnsafeCode": false,
    "overrideReferences": false,
    "precompiledReferences": [],
    "autoReferenced": true,
    "defineConstraints": [],
    "versionDefines": [],
    "noEngineReferences": false
}